
G90
G92 X0 Y0
G21

(Laserengraver_smoothie version 0.07-beta2)
(date: Tue Sep 15 18:50:56 2020)

G0 Z3.0 F5000

(calque: Lignes calibrage)
G1 F2000

M10

G0 X1 Y5
G1 X42 S0.0

G0 X1 Y7
G1 X38 S0.01

G0 X1 Y9
G1 X42 S0.02

G0 X1 Y11
G1 X38 S0.03

G0 X1 Y13
G1 X42 S0.04

G0 X1 Y15
G1 X38 S0.05

G0 X1 Y17
G1 X42 S0.06

G0 X1 Y19
G1 X38 S0.07

G0 X1 Y21
G1 X42 S0.08

G0 X1 Y23
G1 X38 S0.09

G0 X1 Y25
G1 X42 S0.10

G0 X1 Y27
G1 X38 S0.11

G0 X1 Y29
G1 X42 S0.12

G0 X1 Y31
G1 X38 S0.13

G0 X1 Y33
G1 X42 S0.14

G0 X1 Y35
G1 X38 S0.15

G0 X1 Y37
G1 X42 S0.16

G0 X1 Y39
G1 X38 S0.17

G0 X1 Y41
G1 X42 S0.18

G0 X1 Y43
G1 X38 S0.19

G0 X1 Y45
G1 X42 S0.20

M11


(calque: GRAVURE)
G0 X49.3291 Y50.1777

M10
G1  F5000.000000 S0.3
G1  X49.3291 Y48.4406 F5000.000000 S0.3
M11

G0 X49.3291 Y49.4333

M10
G1  F5000.000000 S0.3
G1  X49.4532 Y49.8055
G1  X49.7014 Y50.0537
G1  X49.9495 Y50.1777
G1  X50.3218 Y50.1777
M11

G0 X46.9716 Y49.4333

M10
G1  F5000.000000 S0.3
G1  X48.4606 Y49.4333
G1  X48.4606 Y49.6814
G1  X48.3365 Y49.9296
G1  X48.2124 Y50.0537
G1  X47.9643 Y50.1777
G1  X47.592 Y50.1777
G1  X47.3439 Y50.0537
G1  X47.0957 Y49.8055
G1  X46.9716 Y49.4333
G1  X46.9716 Y49.1851
G1  X47.0957 Y48.8129
G1  X47.3439 Y48.5647
G1  X47.592 Y48.4406
G1  X47.9643 Y48.4406
G1  X48.2124 Y48.5647
G1  X48.4606 Y48.8129
M11

G0 X46.2271 Y49.8055

M10
G1  F5000.000000 S0.3
G1  X46.1031 Y50.0537
G1  X45.7308 Y50.1777
G1  X45.3586 Y50.1777
G1  X44.9864 Y50.0537
G1  X44.8623 Y49.8055
G1  X44.9864 Y49.5573
G1  X45.2345 Y49.4333
G1  X45.8549 Y49.3092
G1  X46.1031 Y49.1851
G1  X46.2271 Y48.9369
G1  X46.2271 Y48.8129
G1  X46.1031 Y48.5647
G1  X45.7308 Y48.4406
G1  X45.3586 Y48.4406
G1  X44.9864 Y48.5647
G1  X44.8623 Y48.8129
M11

G0 X43.9937 Y49.8055

M10
G1  F5000.000000 S0.3
G1  X43.7455 Y50.0537
G1  X43.4974 Y50.1777
G1  X43.1252 Y50.1777
G1  X42.877 Y50.0537
G1  X42.6288 Y49.8055
G1  X42.5048 Y49.4333
G1  X42.5048 Y49.1851
G1  X42.6288 Y48.8129
G1  X42.877 Y48.5647
G1  X43.1252 Y48.4406
G1  X43.4974 Y48.4406
G1  X43.7455 Y48.5647
G1  X43.9937 Y48.8129
M11

G0 X43.9937 Y50.1777

M10
G1  F5000.000000 S0.3
G1  X43.9937 Y48.4406
M11

G0 X45.559 Y45.571

M10
G1  F5000.000000 S0.3
G1  X45.559 Y45.6479
G1  X45.6359 Y45.8016
G1  X45.7128 Y45.8785
G1  X45.8666 Y45.9554
G1  X46.1742 Y45.9554
G1  X46.328 Y45.8785
G1  X46.4049 Y45.8016
G1  X46.4818 Y45.6479
G1  X46.4818 Y45.4941
G1  X46.4049 Y45.3403
G1  X46.2511 Y45.1096
G1  X45.4822 Y44.3407
G1  X46.5587 Y44.3407
M11

G0 X45.7711 Y43.6082

M10
G1  F5000.000000 S0.3
G1  X45.9249 Y43.6851
G1  X46.1556 Y43.9158
G1  X46.1556 Y42.3011
M11

G0 X45.7711 Y41.6071

M10
G1  F5000.000000 S0.3
G1  X45.9249 Y41.684
G1  X46.1556 Y41.9147
G1  X46.1556 Y40.2999
M11

G0 X45.7711 Y39.606

M10
G1  F5000.000000 S0.3
G1  X45.9249 Y39.6829
G1  X46.1556 Y39.9135
G1  X46.1556 Y38.2988
M11

G0 X45.7711 Y37.6048

M10
G1  F5000.000000 S0.3
G1  X45.9249 Y37.6817
G1  X46.1556 Y37.9124
G1  X46.1556 Y36.2976
M11

G0 X45.7711 Y35.6037

M10
G1  F5000.000000 S0.3
G1  X45.9249 Y35.6806
G1  X46.1556 Y35.9112
G1  X46.1556 Y34.2965
M11

G0 X45.7711 Y33.6025

M10
G1  F5000.000000 S0.3
G1  X45.9249 Y33.6794
G1  X46.1556 Y33.9101
G1  X46.1556 Y32.2953
M11

G0 X45.7711 Y31.5822

M10
G1  F5000.000000 S0.3
G1  X45.9249 Y31.6591
G1  X46.1556 Y31.8898
G1  X46.1556 Y30.275
M11

G0 X45.7711 Y29.5822

M10
G1  F5000.000000 S0.3
G1  X45.9249 Y29.6591
G1  X46.1556 Y29.8898
G1  X46.1556 Y28.275
M11

G0 X45.7711 Y27.5822

M10
G1  F5000.000000 S0.3
G1  X45.9249 Y27.6591
G1  X46.1556 Y27.8898
G1  X46.1556 Y26.275
M11

G0 X45.7711 Y25.5822

M10
G1  F5000.000000 S0.3
G1  X45.9249 Y25.6591
G1  X46.1556 Y25.8898
G1  X46.1556 Y24.275
M11

G0 X48.0611 Y23.3899

M10
G1  F5000.000000 S0.3
G1  X47.9842 Y23.1593
G1  X47.8304 Y23.0055
G1  X47.5998 Y22.9286
G1  X47.5229 Y22.9286
G1  X47.2922 Y23.0055
G1  X47.1384 Y23.1593
G1  X47.0615 Y23.3899
G1  X47.0615 Y23.4669
G1  X47.1384 Y23.6975
G1  X47.2922 Y23.8513
G1  X47.5229 Y23.9282
G1  X47.5998 Y23.9282
G1  X47.8304 Y23.8513
G1  X47.9842 Y23.6975
G1  X48.0611 Y23.39
G1  X48.0611 Y23.0055
G1  X47.9842 Y22.621
G1  X47.8304 Y22.3904
G1  X47.5998 Y22.3135
G1  X47.446 Y22.3135
G1  X47.2153 Y22.3904
G1  X47.1384 Y22.5442
M11

G0 X47.4075 Y21.9282

M10
G1  F5000.000000 S0.3
G1  X47.1769 Y21.8513
G1  X47.1 Y21.6976
G1  X47.1 Y21.5438
G1  X47.1769 Y21.39
G1  X47.3306 Y21.3131
G1  X47.6382 Y21.2362
G1  X47.8689 Y21.1593
G1  X48.0227 Y21.0055
G1  X48.0996 Y20.8517
G1  X48.0996 Y20.621
G1  X48.0227 Y20.4673
G1  X47.9458 Y20.3904
G1  X47.7151 Y20.3135
G1  X47.4075 Y20.3135
G1  X47.1768 Y20.3904
G1  X47.0999 Y20.4673
G1  X47.023 Y20.621
G1  X47.023 Y20.8517
G1  X47.0999 Y21.0055
G1  X47.2537 Y21.1593
G1  X47.4844 Y21.2362
G1  X47.792 Y21.3131
G1  X47.9458 Y21.39
G1  X48.0227 Y21.5438
G1  X48.0227 Y21.6976
G1  X47.9458 Y21.8513
G1  X47.7151 Y21.9282
G1  X47.4075 Y21.9282
M11

G0 X47.0057 Y19.9063

M10
G1  F5000.000000 S0.3
G1  X48.0822 Y19.9063
M11

G0 X48.0822 Y19.9063

M10
G1  F5000.000000 S0.3
G1  X47.3133 Y18.2915
M11

G0 X47.9842 Y17.6975

M10
G1  F5000.000000 S0.3
G1  X47.9073 Y17.8513
G1  X47.6766 Y17.9282
G1  X47.5229 Y17.9282
G1  X47.2922 Y17.8513
G1  X47.1384 Y17.6206
G1  X47.0615 Y17.2362
G1  X47.0615 Y16.8517
G1  X47.1384 Y16.5441
G1  X47.2922 Y16.3904
G1  X47.5229 Y16.3134
G1  X47.5998 Y16.3134
G1  X47.8304 Y16.3904
G1  X47.9842 Y16.5441
G1  X48.0611 Y16.7748
G1  X48.0611 Y16.8517
G1  X47.9842 Y17.0824
G1  X47.8304 Y17.2362
G1  X47.5998 Y17.3131
G1  X47.5229 Y17.3131
G1  X47.2922 Y17.2362
G1  X47.1384 Y17.0824
G1  X47.0615 Y16.8517
M11

G0 X47.9437 Y15.9282

M10
G1  F5000.000000 S0.3
G1  X47.1748 Y15.9282
G1  X47.0979 Y15.2362
G1  X47.1748 Y15.3131
G1  X47.4055 Y15.39
G1  X47.6362 Y15.39
G1  X47.8668 Y15.3131
G1  X48.0206 Y15.1593
G1  X48.0975 Y14.9286
G1  X48.0975 Y14.7748
G1  X48.0206 Y14.5441
G1  X47.8668 Y14.3904
G1  X47.6362 Y14.3134
G1  X47.4055 Y14.3134
G1  X47.1748 Y14.3904
G1  X47.0979 Y14.4673
G1  X47.021 Y14.621
M11

G0 X47.7909 Y13.8897

M10
G1  F5000.000000 S0.3
G1  X47.7909 Y12.275
M11

G0 X47.1748 Y11.9282

M10
G1  F5000.000000 S0.3
G1  X48.0206 Y11.9282
G1  X47.5593 Y11.3131
G1  X47.7899 Y11.3131
G1  X47.9437 Y11.2362
G1  X48.0206 Y11.1593
G1  X48.0975 Y10.9286
G1  X48.0975 Y10.7748
G1  X48.0206 Y10.5441
G1  X47.8668 Y10.3903
G1  X47.6362 Y10.3134
G1  X47.4055 Y10.3134
G1  X47.1748 Y10.3903
G1  X47.0979 Y10.4672
G1  X47.021 Y10.621
M11

G0 X47.1463 Y9.5437

M10
G1  F5000.000000 S0.3
G1  X47.1463 Y9.6206
G1  X47.2232 Y9.7744
G1  X47.3001 Y9.8513
G1  X47.4539 Y9.9282
G1  X47.7615 Y9.9282
G1  X47.9153 Y9.8513
G1  X47.9922 Y9.7744
G1  X48.0691 Y9.6206
G1  X48.0691 Y9.4668
G1  X47.9922 Y9.3131
G1  X47.8384 Y9.0824
G1  X47.0695 Y8.3135
G1  X48.146 Y8.3135
M11

G0 X47.3584 Y7.5822

M10
G1  F5000.000000 S0.3
G1  X47.5122 Y7.6591
G1  X47.7429 Y7.8897
G1  X47.7429 Y6.275
M11

G0 X47.5007 Y5.9814

M10
G1  F5000.000000 S0.3
G1  X47.2626 Y5.902
G1  X47.1039 Y5.6639
G1  X47.0245 Y5.2671
G1  X47.0245 Y5.029
G1  X47.1039 Y4.6322
G1  X47.2626 Y4.3941
G1  X47.5007 Y4.3147
G1  X47.6595 Y4.3147
G1  X47.8976 Y4.3941
G1  X48.0563 Y4.6322
G1  X48.1357 Y5.029
G1  X48.1357 Y5.2671
G1  X48.0563 Y5.6639
G1  X47.8976 Y5.902
G1  X47.6595 Y5.9814
G1  X47.5007 Y5.9814
M11

G0 X47.7909 Y13.8897

M10
G1  F5000.000000 S0.3
G1  X47.022 Y12.8133
G1  X48.1753 Y12.8133
M11

G0 X47.4844 Y25.9282

M10
G1  F5000.000000 S0.3
G1  X47.2537 Y25.8513
G1  X47.0999 Y25.6206
G1  X47.023 Y25.2362
G1  X47.023 Y25.0055
G1  X47.0999 Y24.621
G1  X47.2537 Y24.3904
G1  X47.4844 Y24.3135
G1  X47.6382 Y24.3135
G1  X47.8689 Y24.3904
G1  X48.0227 Y24.621
G1  X48.0996 Y25.0055
G1  X48.0996 Y25.2362
G1  X48.0227 Y25.6206
G1  X47.8689 Y25.8513
G1  X47.6382 Y25.9282
G1  X47.4844 Y25.9282
M11

G0 X47.3584 Y27.5822

M10
G1  F5000.000000 S0.3
G1  X47.5122 Y27.6591
G1  X47.7429 Y27.8898
G1  X47.7429 Y26.275
M11

G0 X47.1463 Y29.5437

M10
G1  F5000.000000 S0.3
G1  X47.1463 Y29.6206
G1  X47.2232 Y29.7744
G1  X47.3001 Y29.8513
G1  X47.4539 Y29.9282
G1  X47.7615 Y29.9282
G1  X47.9153 Y29.8513
G1  X47.9922 Y29.7744
G1  X48.0691 Y29.6206
G1  X48.0691 Y29.4669
G1  X47.9922 Y29.3131
G1  X47.8384 Y29.0824
G1  X47.0695 Y28.3135
G1  X48.146 Y28.3135
M11

G0 X47.1748 Y31.9282

M10
G1  F5000.000000 S0.3
G1  X48.0206 Y31.9282
G1  X47.5593 Y31.3131
G1  X47.7899 Y31.3131
G1  X47.9437 Y31.2362
G1  X48.0206 Y31.1593
G1  X48.0975 Y30.9286
G1  X48.0975 Y30.7748
G1  X48.0206 Y30.5442
G1  X47.8668 Y30.3904
G1  X47.6362 Y30.3135
G1  X47.4055 Y30.3135
G1  X47.1748 Y30.3904
G1  X47.0979 Y30.4673
G1  X47.021 Y30.6211
M11

G0 X47.7909 Y33.9653

M10
G1  F5000.000000 S0.3
G1  X47.7909 Y32.3505
M11

G0 X47.7909 Y33.9653

M10
G1  F5000.000000 S0.3
G1  X47.022 Y32.8888
G1  X48.1753 Y32.8888
M11

G0 X47.9437 Y35.9539

M10
G1  F5000.000000 S0.3
G1  X47.1748 Y35.9539
G1  X47.0979 Y35.2618
G1  X47.1748 Y35.3387
G1  X47.4055 Y35.4156
G1  X47.6362 Y35.4156
G1  X47.8668 Y35.3387
G1  X48.0206 Y35.185
G1  X48.0975 Y34.9543
G1  X48.0975 Y34.8005
G1  X48.0206 Y34.5698
G1  X47.8668 Y34.416
G1  X47.6362 Y34.3391
G1  X47.4055 Y34.3391
G1  X47.1748 Y34.416
G1  X47.0979 Y34.4929
G1  X47.021 Y34.6467
M11

G0 X47.9842 Y37.7279

M10
G1  F5000.000000 S0.3
G1  X47.9073 Y37.8817
G1  X47.6766 Y37.9586
G1  X47.5229 Y37.9586
G1  X47.2922 Y37.8817
G1  X47.1384 Y37.651
G1  X47.0615 Y37.2665
G1  X47.0615 Y36.8821
G1  X47.1384 Y36.5745
G1  X47.2922 Y36.4207
G1  X47.5229 Y36.3438
G1  X47.5998 Y36.3438
G1  X47.8304 Y36.4207
G1  X47.9842 Y36.5745
G1  X48.0611 Y36.8052
G1  X48.0611 Y36.8821
G1  X47.9842 Y37.1128
G1  X47.8304 Y37.2665
G1  X47.5998 Y37.3434
G1  X47.5229 Y37.3434
G1  X47.2922 Y37.2665
G1  X47.1384 Y37.1128
G1  X47.0615 Y36.8821
M11

G0 X47.0057 Y39.9413

M10
G1  F5000.000000 S0.3
G1  X48.0822 Y39.9413
M11

G0 X48.0822 Y39.9413

M10
G1  F5000.000000 S0.3
G1  X47.3133 Y38.3266
M11

G0 X47.4075 Y41.9461

M10
G1  F5000.000000 S0.3
G1  X47.1769 Y41.8692
G1  X47.1 Y41.7154
G1  X47.1 Y41.5616
G1  X47.1769 Y41.4078
G1  X47.3306 Y41.3309
G1  X47.6382 Y41.254
G1  X47.8689 Y41.1771
G1  X48.0227 Y41.0233
G1  X48.0996 Y40.8695
G1  X48.0996 Y40.6389
G1  X48.0227 Y40.4851
G1  X47.9458 Y40.4082
G1  X47.7151 Y40.3313
G1  X47.4075 Y40.3313
G1  X47.1768 Y40.4082
G1  X47.0999 Y40.4851
G1  X47.023 Y40.6389
G1  X47.023 Y40.8695
G1  X47.0999 Y41.0233
G1  X47.2537 Y41.1771
G1  X47.4844 Y41.254
G1  X47.792 Y41.3309
G1  X47.9458 Y41.4078
G1  X48.0227 Y41.5616
G1  X48.0227 Y41.7154
G1  X47.9458 Y41.8692
G1  X47.7151 Y41.9461
G1  X47.4075 Y41.9461
M11

G0 X48.0611 Y43.4125

M10
G1  F5000.000000 S0.3
G1  X47.9842 Y43.1818
G1  X47.8304 Y43.028
G1  X47.5998 Y42.9511
G1  X47.5229 Y42.9511
G1  X47.2922 Y43.028
G1  X47.1384 Y43.1818
G1  X47.0615 Y43.4125
G1  X47.0615 Y43.4894
G1  X47.1384 Y43.7201
G1  X47.2922 Y43.8739
G1  X47.5229 Y43.9507
G1  X47.5998 Y43.9507
G1  X47.8304 Y43.8739
G1  X47.9842 Y43.7201
G1  X48.0611 Y43.4125
G1  X48.0611 Y43.028
G1  X47.9842 Y42.6436
G1  X47.8304 Y42.4129
G1  X47.5998 Y42.336
G1  X47.446 Y42.336
G1  X47.2153 Y42.4129
G1  X47.1384 Y42.5667
M11

G0 X47.4844 Y45.9554

M10
G1  F5000.000000 S0.3
G1  X47.2537 Y45.8785
G1  X47.0999 Y45.6479
G1  X47.023 Y45.2634
G1  X47.023 Y45.0327
G1  X47.0999 Y44.6483
G1  X47.2537 Y44.4176
G1  X47.4844 Y44.3407
G1  X47.6382 Y44.3407
G1  X47.8689 Y44.4176
G1  X48.0227 Y44.6483
G1  X48.0996 Y45.0327
G1  X48.0996 Y45.2634
G1  X48.0227 Y45.6479
G1  X47.8689 Y45.8785
G1  X47.6382 Y45.9554
G1  X47.4844 Y45.9554
M11

G0 X41.6362 Y51.0463

M10
G1  F5000.000000 S0.3
G1  X41.6362 Y48.4406
M11

G0 X38.0379 Y49.4333

M10
G1  F5000.000000 S0.3
G1  X38.162 Y49.8055
G1  X38.4101 Y50.0537
G1  X38.6583 Y50.1777
G1  X39.0305 Y50.1777
M11

G0 X38.0379 Y50.1777

M10
G1  F5000.000000 S0.3
G1  X38.0379 Y48.4406
M11

G0 X35.6804 Y49.4333

M10
G1  F5000.000000 S0.3
G1  X37.1693 Y49.4333
G1  X37.1693 Y49.6814
G1  X37.0452 Y49.9296
G1  X36.9212 Y50.0537
G1  X36.673 Y50.1777
G1  X36.3008 Y50.1777
G1  X36.0526 Y50.0537
G1  X35.8044 Y49.8055
G1  X35.6804 Y49.4333
G1  X35.6804 Y49.1851
G1  X35.8044 Y48.8129
G1  X36.0526 Y48.5647
G1  X36.3008 Y48.4406
G1  X36.673 Y48.4406
G1  X36.9212 Y48.5647
G1  X37.1693 Y48.8129
M11

G0 X34.9359 Y50.1777

M10
G1  F5000.000000 S0.3
G1  X34.4395 Y48.4406
M11

G0 X33.9432 Y50.1777

M10
G1  F5000.000000 S0.3
G1  X34.4395 Y48.4406
M11

G0 X33.9432 Y50.1777

M10
G1  F5000.000000 S0.3
G1  X33.4469 Y48.4406
M11

G0 X32.9506 Y50.1777

M10
G1  F5000.000000 S0.3
G1  X33.4469 Y48.4406
M11

G0 X31.2135 Y50.1777

M10
G1  F5000.000000 S0.3
G1  X30.9653 Y50.0537
G1  X30.7172 Y49.8055
G1  X30.5931 Y49.4333
G1  X30.5931 Y49.1851
G1  X30.7172 Y48.8129
G1  X30.9653 Y48.5647
G1  X31.2135 Y48.4406
G1  X31.5857 Y48.4406
G1  X31.8339 Y48.5647
G1  X32.082 Y48.8129
G1  X32.2061 Y49.1851
G1  X32.2061 Y49.4333
G1  X32.082 Y49.8055
G1  X31.8339 Y50.0537
G1  X31.5857 Y50.1777
G1  X31.2135 Y50.1777
M11

G0 X28.3596 Y50.1777

M10
G1  F5000.000000 S0.3
G1  X28.3596 Y47.5721
M11

G0 X28.3596 Y49.8055

M10
G1  F5000.000000 S0.3
G1  X28.6078 Y50.0537
G1  X28.856 Y50.1777
G1  X29.2282 Y50.1777
G1  X29.4764 Y50.0537
G1  X29.7245 Y49.8055
G1  X29.8486 Y49.4333
G1  X29.8486 Y49.1851
G1  X29.7245 Y48.8129
G1  X29.4764 Y48.5647
G1  X29.2282 Y48.4406
G1  X28.856 Y48.4406
G1  X28.6078 Y48.5647
G1  X28.3596 Y48.8129
M11

G0 X25.3817 Y51.0463

M10
G1  F5000.000000 S0.3
G1  X25.3817 Y48.4406
M11

G0 X24.3891 Y49.8055

M10
G1  F5000.000000 S0.3
G1  X24.1409 Y50.0537
G1  X23.8928 Y50.1777
G1  X23.5205 Y50.1777
G1  X23.2724 Y50.0537
G1  X23.0242 Y49.8055
G1  X22.9001 Y49.4333
G1  X22.9001 Y49.1851
G1  X23.0242 Y48.8129
G1  X23.2724 Y48.5647
G1  X23.5205 Y48.4406
G1  X23.8928 Y48.4406
G1  X24.1409 Y48.5647
G1  X24.3891 Y48.8129
M11

G0 X24.3891 Y50.1777

M10
G1  F5000.000000 S0.3
G1  X24.3891 Y48.4406
M11

G0 X22.2797 Y50.1777

M10
G1  F5000.000000 S0.3
G1  X21.5352 Y48.4406
M11

G0 X20.7908 Y50.1777

M10
G1  F5000.000000 S0.3
G1  X21.5352 Y48.4406
M11

G0 X16.6961 Y49.4333

M10
G1  F5000.000000 S0.3
G1  X18.1851 Y49.4333
G1  X18.1851 Y49.6814
G1  X18.061 Y49.9296
G1  X17.9369 Y50.0537
G1  X17.6888 Y50.1777
G1  X17.3165 Y50.1777
G1  X17.0684 Y50.0537
G1  X16.8202 Y49.8055
G1  X16.6961 Y49.4333
G1  X16.6961 Y49.1851
G1  X16.8202 Y48.8129
G1  X17.0684 Y48.5647
G1  X17.3165 Y48.4406
G1  X17.6888 Y48.4406
G1  X17.9369 Y48.5647
G1  X18.1851 Y48.8129
M11

G0 X15.8276 Y49.8055

M10
G1  F5000.000000 S0.3
G1  X15.5794 Y50.0537
G1  X15.3312 Y50.1777
G1  X14.959 Y50.1777
G1  X14.7108 Y50.0537
G1  X14.4627 Y49.8055
G1  X14.3386 Y49.4333
G1  X14.3386 Y49.1851
G1  X14.4627 Y48.8129
G1  X14.7108 Y48.5647
G1  X14.959 Y48.4406
G1  X15.3312 Y48.4406
G1  X15.5794 Y48.5647
G1  X15.8276 Y48.8129
M11

G0 X15.8276 Y50.1777

M10
G1  F5000.000000 S0.3
G1  X15.8276 Y48.1925
G1  X15.7035 Y47.8202
G1  X15.5794 Y47.6961
G1  X15.3312 Y47.5721
G1  X14.959 Y47.5721
G1  X14.7108 Y47.6961
M11

G0 X13.47 Y49.8055

M10
G1  F5000.000000 S0.3
G1  X13.2219 Y50.0537
G1  X12.9737 Y50.1777
G1  X12.6015 Y50.1777
G1  X12.3533 Y50.0537
G1  X12.1052 Y49.8055
G1  X11.9811 Y49.4333
G1  X11.9811 Y49.1851
G1  X12.1052 Y48.8129
G1  X12.3533 Y48.5647
G1  X12.6015 Y48.4406
G1  X12.9737 Y48.4406
G1  X13.2219 Y48.5647
G1  X13.47 Y48.8129
M11

G0 X13.47 Y50.1777

M10
G1  F5000.000000 S0.3
G1  X13.47 Y48.4406
M11

G0 X10.4921 Y49.4333

M10
G1  F5000.000000 S0.3
G1  X10.6162 Y49.8055
G1  X10.8644 Y50.0537
G1  X11.1125 Y50.1777
G1  X11.4848 Y50.1777
M11

G0 X10.4921 Y50.1777

M10
G1  F5000.000000 S0.3
G1  X10.4921 Y48.4406
M11

G0 X8.1346 Y49.8055

M10
G1  F5000.000000 S0.3
G1  X8.3828 Y50.0537
G1  X8.6309 Y50.1777
G1  X9.0032 Y50.1777
G1  X9.2513 Y50.0537
G1  X9.4995 Y49.8055
G1  X9.6236 Y49.4333
G1  X9.6236 Y49.1851
G1  X9.4995 Y48.8129
G1  X9.2513 Y48.5647
G1  X9.0032 Y48.4406
G1  X8.6309 Y48.4406
G1  X8.3828 Y48.5647
G1  X8.1346 Y48.8129
M11

G0 X7.142 Y50.1777

M10
G1  F5000.000000 S0.3
G1  X7.142 Y48.4406
M11

G0 X5.1567 Y49.8055

M10
G1  F5000.000000 S0.3
G1  X4.9085 Y50.0537
G1  X4.6604 Y50.1777
G1  X4.2881 Y50.1777
G1  X4.04 Y50.0537
G1  X3.7918 Y49.8055
G1  X3.6677 Y49.4333
G1  X3.6677 Y49.1851
G1  X3.7918 Y48.8129
G1  X4.04 Y48.5647
G1  X4.2881 Y48.4406
G1  X4.6604 Y48.4406
G1  X4.9085 Y48.5647
G1  X5.1567 Y48.8129
M11

G0 X5.1567 Y50.1777

M10
G1  F5000.000000 S0.3
G1  X5.1567 Y48.4406
M11

G0 X6.1493 Y51.0463

M10
G1  F5000.000000 S0.3
G1  X6.1493 Y48.4406
M11

G0 X7.0179 Y51.0463

M10
G1  F5000.000000 S0.3
G1  X7.142 Y50.9222
G1  X7.266 Y51.0463
G1  X7.142 Y51.1704
G1  X7.0179 Y51.0463
M11

G0 X8.1346 Y51.0463

M10
G1  F5000.000000 S0.3
G1  X8.1346 Y48.4406
M11

G0 X2.9232 Y50.4259

M10
G1  F5000.000000 S0.3
G1  X2.7992 Y50.6741
G1  X2.551 Y50.9222
G1  X2.3028 Y51.0463
G1  X1.8065 Y51.0463
G1  X1.5584 Y50.9222
G1  X1.3102 Y50.6741
G1  X1.1861 Y50.4259
G1  X1.062 Y50.0537
G1  X1.062 Y49.4333
G1  X1.1861 Y49.061
G1  X1.3102 Y48.8129
G1  X1.5584 Y48.5647
G1  X1.8065 Y48.4406
G1  X2.3028 Y48.4406
G1  X2.551 Y48.5647
G1  X2.7992 Y48.8129
G1  X2.9232 Y49.061
M11

(calque: DECOUPE)
G0 X0. Y52.

M10
G1  F1000.000000 S1.0
G1  X52. Y52. F1000.000000 S1.0
G1  X52. Y0.
G1  X0. Y0.
G1  X0. Y52.
M11

G0 X0.000 Y0.000
M05
M02
