M117 Initialisation
M117 Home Y
G28 Y0 F10000
G92 Y1200
M117 Home X
G28 X0
G92 X0
M117 Home Z
G28 Z
M117 Correction Z
G0 Z1 F100
G92 Z0
G0 Z10 F100
M117 Deplacement X/Y
G0 X100 Y0 F7500
M117 Set Zeros X/Y
G92 X0 Y0
M117 Laser Jaune :)
